…
    ## Rows: 10 Columns: 11
    ## ── Column specification ────────────────────────────────────────────────────────
    ## Delimiter: ","
    ## dbl (11): Episode, Series 1, Series 2, Series 3, Series 4, Series 5, Series ...
    ## 
    ## ℹ Use `spec()` to retrieve the full column specification for this data.
    ## ℹ Specify the column types or set `show_col_types = FALSE` to quiet this message.

``` r
viewers_df
```

    ## # A tibble: 100 × 3
    ##    episode series viewers
    ##      <dbl>  <dbl>   <dbl>
    ##  1       1      1    2.24
    ##  2       1      2    3.1 
    ##  3       1      3    3.85
    ##  4       1      4    6.6 
    ##  5       1      5    8.51
    ##  6       1      6   11.6 
    ##  7       1      7   13.6 
    ##  8       1      8    9.46
    ##  9       1      9    9.55
    ## 10       1     10    9.62
    ## # ℹ 90 more rows
…
